%YAML 1.1
%TAG !u! tag:unity3d.com,2011:
--- !u!30 &1
GraphicsSettings:
  m_ObjectHideFlags: 0
  serializedVersion: 15
  m_Deferred:
    m_Mode: 1
    m_Shader: {fileID: 69, guid: 0000000000000000f000000000000000, type: 0}
  m_DeferredReflections:
    m_Mode: 1
    m_Shader: {fileID: 74, guid: 0000000000000000f000000000000000, type: 0}
  m_ScreenSpaceShadows:
    m_Mode: 1
    m_Shader: {fileID: 64, guid: 0000000000000000f000000000000000, type: 0}
  m_DepthNormals:
    m_Mode: 1
    m_Shader: {fileID: 62, guid: 0000000000000000f000000000000000, type: 0}
  m_MotionVectors:
    m_Mode: 1
    m_Shader: {fileID: 75, guid: 0000000000000000f000000000000000, type: 0}
  m_LightHalo:
    m_Mode: 1
    m_Shader: {fileID: 105, guid: 0000000000000000f000000000000000, type: 0}
  m_LensFlare:
    m_Mode: 1
    m_Shader: {fileID: 102, guid: 0000000000000000f000000000000000, type: 0}
  m_VideoShadersIncludeMode: 2
  m_AlwaysIncludedShaders:
  - {fileID: 7, guid: 0000000000000000f000000000000000, type: 0}
  - {fileID: 15104, guid: 0000000000000000f000000000000000, type: 0}
  - {fileID: 15105, guid: 0000000000000000f000000000000000, type: 0}
  - {fileID: 15106, guid: 0000000000000000f000000000000000, type: 0}
  - {fileID: 10753, guid: 0000000000000000f000000000000000, type: 0}
  - {fileID: 10770, guid: 0000000000000000f000000000000000, type: 0}
  - {fileID: 10783, guid: 0000000000000000f000000000000000, type: 0}
  m_PreloadedShaders:
  - {fileID: 20000000, guid: 0592630512d2dd641a81db2537c4faef, type: 2}
  m_PreloadShadersBatchTimeLimit: -1
  m_SpritesDefaultMaterial: {fileID: 10754, guid: 0000000000000000f000000000000000,
    type: 0}
  m_CustomRenderPipeline: {fileID: 11400000, guid: 7b7fd9122c28c4d15b667c7040e3b3fd,
    type: 2}
  m_TransparencySortMode: 0
  m_TransparencySortAxis: {x: 0, y: 0, z: 1}
  m_DefaultRenderingPath: 1
  m_DefaultMobileRenderingPath: 1
  m_TierSettings: []
  m_LightmapStripping: 0
  m_FogStripping: 0
  m_InstancingStripping: 0
  m_BrgStripping: 0
  m_LightmapKeepPlain: 1
  m_LightmapKeepDirCombined: 1
  m_LightmapKeepDynamicPlain: 1
  m_LightmapKeepDynamicDirCombined: 1
  m_LightmapKeepShadowMask: 1
  m_LightmapKeepSubtractive: 1
  m_FogKeepLinear: 1
  m_FogKeepExp: 1
  m_FogKeepExp2: 1
  m_AlbedoSwatchInfos: []
  m_LightsUseLinearIntensity: 1
  m_LightsUseColorTemperature: 1
  m_DefaultRenderingLayerMask: 1
  m_LogWhenShaderIsCompiled: 0
  m_SRPDefaultSettings:
    UnityEngine.Rendering.Universal.UniversalRenderPipeline: {fileID: 11400000, guid: 18dc0cd2c080841dea60987a38ce93fa,
      type: 2}
  m_LightProbeOutsideHullStrategy: 0
  m_CameraRelativeLightCulling: 0
  m_CameraRelativeShadowCulling: 0
