{
    "name": "Controls",
    "maps": [
        {
            "name": "Player",
            "id": "e5ef3659-d8c1-4f86-9fde-c97dd4cb8e20",
            "actions": [
                {
                    "name": "Move",
                    "type": "Value",
                    "id": "04169ff1-b232-42d0-89a3-fd1baed5b2a3",
                    "expectedControlType": "Vector2",
                    "processors": "",
                    "interactions": "",
                    "initialStateCheck": true
                },
                {
                    "name": "Rotate",
                    "type": "Value",
                    "id": "1ed0e770-e1b5-4332-90d3-74b1425f8395",
                    "expectedControlType": "Axis",
                    "processors": "",
                    "interactions": "",
                    "initialStateCheck": true
                },
                {
                    "name": "Act",
                    "type": "Button",
                    "id": "24aa01e8-7bf4-4588-8c41-8d3011bd8b51",
                    "expectedControlType": "Button",
                    "processors": "",
                    "interactions": "",
                    "initialStateCheck": false
                },
                {
                    "name": "Num1",
                    "type": "Button",
                    "id": "e675d50b-132e-4cf7-82b1-d05fb8a6601b",
                    "expectedControlType": "Button",
                    "processors": "",
                    "interactions": "",
                    "initialStateCheck": false
                },
                {
                    "name": "Num2",
                    "type": "Button",
                    "id": "57e58863-2ca2-47d5-a820-5768beef2a3b",
                    "expectedControlType": "Button",
                    "processors": "",
                    "interactions": "",
                    "initialStateCheck": false
                },
                {
                    "name": "Num3",
                    "type": "Button",
                    "id": "041236f6-8842-46a9-bbd8-2384a9fa193a",
                    "expectedControlType": "Button",
                    "processors": "",
                    "interactions": "",
                    "initialStateCheck": false
                },
                {
                    "name": "Cancel",
                    "type": "Button",
                    "id": "e114dcca-b36d-47bf-b072-ee2b49f93727",
                    "expectedControlType": "Button",
                    "processors": "",
                    "interactions": "",
                    "initialStateCheck": false
                },
                {
                    "name": "Close",
                    "type": "Button",
                    "id": "8db97054-af94-440d-8bbe-18bdc2c6d723",
                    "expectedControlType": "Button",
                    "processors": "",
                    "interactions": "",
                    "initialStateCheck": false
                }
            ],
            "bindings": [
                {
                    "name": "MoveInput",
                    "id": "c22c95c7-753f-4736-9744-4e5e1eca8d20",
                    "path": "2DVector",
                    "interactions": "",
                    "processors": "",
                    "groups": "",
                    "action": "Move",
                    "isComposite": true,
                    "isPartOfComposite": false
                },
                {
                    "name": "up",
                    "id": "dd788d4b-2be0-4f13-92fd-c09c6046cc48",
                    "path": "<Keyboard>/w",
                    "interactions": "",
                    "processors": "",
                    "groups": "",
                    "action": "Move",
                    "isComposite": false,
                    "isPartOfComposite": true
                },
                {
                    "name": "down",
                    "id": "4cc99e0b-6151-467d-b968-97f300500056",
                    "path": "<Keyboard>/s",
                    "interactions": "",
                    "processors": "",
                    "groups": "",
                    "action": "Move",
                    "isComposite": false,
                    "isPartOfComposite": true
                },
                {
                    "name": "left",
                    "id": "03bd3c94-8181-4489-8b1e-c9541dd4bb3b",
                    "path": "<Keyboard>/a",
                    "interactions": "",
                    "processors": "",
                    "groups": "",
                    "action": "Move",
                    "isComposite": false,
                    "isPartOfComposite": true
                },
                {
                    "name": "right",
                    "id": "92eb7347-5e71-4bec-9168-0d7fcbd22ccc",
                    "path": "<Keyboard>/d",
                    "interactions": "",
                    "processors": "",
                    "groups": "",
                    "action": "Move",
                    "isComposite": false,
                    "isPartOfComposite": true
                },
                {
                    "name": "1D Axis",
                    "id": "960ea1b2-6f21-4ebd-b8b3-68f987fccc38",
                    "path": "1DAxis",
                    "interactions": "",
                    "processors": "",
                    "groups": "",
                    "action": "Rotate",
                    "isComposite": true,
                    "isPartOfComposite": false
                },
                {
                    "name": "negative",
                    "id": "e4f27bf5-1a26-4dff-9d76-d0b3e70a6243",
                    "path": "<Keyboard>/q",
                    "interactions": "",
                    "processors": "",
                    "groups": "",
                    "action": "Rotate",
                    "isComposite": false,
                    "isPartOfComposite": true
                },
                {
                    "name": "positive",
                    "id": "4d53f10e-f3da-4071-9fa2-efa6decf243b",
                    "path": "<Keyboard>/e",
                    "interactions": "",
                    "processors": "",
                    "groups": "",
                    "action": "Rotate",
                    "isComposite": false,
                    "isPartOfComposite": true
                },
                {
                    "name": "",
                    "id": "dbf997ea-0b64-4d77-aba7-b48ba2796adb",
                    "path": "<Keyboard>/space",
                    "interactions": "",
                    "processors": "",
                    "groups": "",
                    "action": "Act",
                    "isComposite": false,
                    "isPartOfComposite": false
                },
                {
                    "name": "",
                    "id": "241604ef-823f-4a50-a49e-4b71e8da966f",
                    "path": "<Keyboard>/1",
                    "interactions": "",
                    "processors": "",
                    "groups": "",
                    "action": "Num1",
                    "isComposite": false,
                    "isPartOfComposite": false
                },
                {
                    "name": "",
                    "id": "73067ea7-0263-4595-8015-bd6d822181d0",
                    "path": "<Keyboard>/2",
                    "interactions": "",
                    "processors": "",
                    "groups": "",
                    "action": "Num2",
                    "isComposite": false,
                    "isPartOfComposite": false
                },
                {
                    "name": "",
                    "id": "58617075-b2c9-4bd6-8272-39126ece1708",
                    "path": "<Keyboard>/3",
                    "interactions": "",
                    "processors": "",
                    "groups": "",
                    "action": "Num3",
                    "isComposite": false,
                    "isPartOfComposite": false
                },
                {
                    "name": "",
                    "id": "8f09a84b-4a3d-47b8-a8f8-814855ff0ab9",
                    "path": "<Keyboard>/x",
                    "interactions": "",
                    "processors": "",
                    "groups": "",
                    "action": "Cancel",
                    "isComposite": false,
                    "isPartOfComposite": false
                },
                {
                    "name": "",
                    "id": "de94b70c-095f-45a3-a2d4-b5aade52063b",
                    "path": "<Keyboard>/escape",
                    "interactions": "",
                    "processors": "",
                    "groups": "",
                    "action": "Close",
                    "isComposite": false,
                    "isPartOfComposite": false
                }
            ]
        }
    ],
    "controlSchemes": []
}