%YAML 1.1
%TAG !u! tag:unity3d.com,2011:
--- !u!114 &11400000
MonoBehaviour:
  m_ObjectHideFlags: 0
  m_CorrespondingSourceObject: {fileID: 0}
  m_PrefabInstance: {fileID: 0}
  m_PrefabAsset: {fileID: 0}
  m_GameObject: {fileID: 0}
  m_Enabled: 1
  m_EditorHideFlags: 0
  m_Script: {fileID: 11500000, guid: 155b92454cbb99b49a75ceb49583c581, type: 3}
  m_Name: PoltergeistSounds
  m_EditorClassIdentifier: 
  audioClipList:
  - {fileID: 8300000, guid: 331bd888bd2377f4cbc46ad6c0c6aefb, type: 3}
