%YAML 1.1
%TAG !u! tag:unity3d.com,2011:
--- !u!114 &11400000
MonoBehaviour:
  m_ObjectHideFlags: 0
  m_CorrespondingSourceObject: {fileID: 0}
  m_PrefabInstance: {fileID: 0}
  m_PrefabAsset: {fileID: 0}
  m_GameObject: {fileID: 0}
  m_Enabled: 1
  m_EditorHideFlags: 0
  m_Script: {fileID: 11500000, guid: 05d75b81c22411641b809afffe11f532, type: 3}
  m_Name: Poltergeist
  m_EditorClassIdentifier: 
  <GhostPrefab>k__BackingField: {fileID: -1819690739110022727, guid: 989d6d2221650fc47839e338c2e79c3b,
    type: 3}
  <GhostCursorPrefab>k__BackingField: {fileID: 7010386276183461772, guid: 6c3ec9a8ec6aa824f8a951bbb7c90a86,
    type: 3}
